New Packages: GetDFPdata = GetDFPData2 + GetFREData | msperlin
…
# not in CRAN, install from github
devtools::install_github('msperlin/GetFREData')

Examples of Usage

GetDFPData2

library(GetDFPData2)
library(tidyverse)

# information about companies
df_info <- get_info_companies(tempdir())
df_info 

## # A tibble: 2,530 × 47
##    CNPJ               DENOM_SOCIAL DENOM_COMERC DT_REG     DT_CONST   DT_CANCEL 
##    <chr>              <chr>        <chr>        <date>     <date>     <date>    
##  1 08.773.135/0001-00 2W ENERGIA … <NA>         2020-10-29 2007-03-23 NA        
##  2 11.396.633/0001-87 3A COMPANHI… TRIPLO A  C… 2010-03-08 2009-11-03 2015-12-18
##  3 12.091.809/0001-55 3R PETROLEU… <NA>         2020-11-09 2010-06-08 NA        
##  4 01.547.749/0001-16 521 PARTICI… 521 PARTICI… 1997-07-11 1996-07-30 NA        
##  5 01.851.771/0001-55 524 PARTICI… 524 PARTICI… 1997-05-30 1997-04-02 NA        
##  6 01.919.008/0001-19 525 PARTICI… 525 PARTICI… 1997-07-16 1997-04-02 2006-05-30
##  7 92.659.614/0001-06 A J RENNER … A J RENNER   1969-06-24 NA         1998-06-17
##  8 02.288.752/0001-25 A.P. PARTIC… A.P. PARTIC… 1998-01-21 1997-12-14 2004-12-23
##  9 21.649.280/0001-33 ABC DADOS E… ABC COMPUTA… 1988-06-03 NA         1993-03-05
## 10 02.258.274/0001-00 ABC SUPERME… ABC SUPERME… 1998-02-27 1997-09-30 2001-12-17
## # … with 2,520 more rows, and 41 more variables: MOTIVO_CANCEL <chr>,
## #   SIT_REG <chr>, DT_INI_SIT <date>, CD_CVM <dbl>, SETOR_ATIV <chr>,
## #   TP_MERC <chr>, CATEG_REG <chr>, DT_INI_CATEG <date>, SIT_EMISSOR <chr>,
## #   DT_INI_SIT_EMISSOR <date>, CONTROLE_ACIONARIO <chr>, TP_ENDER <chr>,
## #   LOGRADOURO <chr>, COMPL <chr>, BAIRRO <chr>, MUN <chr>, UF <chr>,
## #   PAIS <chr>, CEP <dbl>, DDD_TEL <chr>, TEL <dbl>, DDD_FAX <chr>, FAX <dbl>,
## #   EMAIL <chr>, TP_RESP <chr>, RESP <chr>, DT_INI_RESP <date>, …
…
