…
##  Dowloading file from CVM

##  File not found, downloading it..

##  Success

##  Reading file from CVM

##  Saving cache data

##  Got 2331 lines for 2290 companies [Actives = 648 Inactives = 1653]

print(df_info )

## # A tibble: 2,331 x 44
##    CD_CVM DENOM_SOCIAL    DENOM_COMERC   SETOR_ATIV  PF_PJ CNPJ  DT_REG DT_CONST
##     <dbl> <chr>           <chr>          <chr>       <chr> <chr> <chr>  <chr>   
##  1  25224 2W ENERGIA S.A. <NA>           Construção… PJ    8773… 29/10… 23/03/2…
##  2  21954 3A COMPANHIA S… TRIPLO A  COM… Securitiza… PJ    1139… 08/03… 03/11/2…
##  3  25291 3R PETROLEUM O… <NA>           Petróleo e… PJ    1209… 09/11… 08/06/2…
##  4  16330 521 PARTICIPAÇ… 521 PARTICIPA… Emp. Adm. … PJ    1547… 11/07… 30/07/1…
##  5  16284 524 PARTICIPAÇ… 524 PARTICIPA… Emp. Adm. … PJ    1851… 30/05… 02/04/1…
##  6  16349 525 PARTICIPAÇ… 525 PARTICIPA… Emp. Adm. … PJ    1919… 16/07… 02/04/1…
##  7     35 A J RENNER SA … A J RENNER     Emp. Adm. … PJ    9265… 24/06… <NA>    
##  8  16802 A.P. PARTICIPA… A.P. PARTICIP… Emp. Adm. … PJ    2288… 21/01… 14/12/1…
##  9  13307 ABC DADOS E IN… ABC COMPUTADO… Máquinas, … PJ    2164… 03/06… <NA>    
## 10  16934 ABC SUPERMERCA… ABC SUPERMERC… Comércio (… PJ    2258… 27/02… 30/09/1…
## # … with 2,321 more rows, and 36 more variables: DT_CANCEL <chr>,
## #   MOTIVO_CANCEL <chr>, SIT_REG <chr>, DT_INI_SIT <chr>, SIT_EMISSOR <chr>,
## #   DT_INI_SIT_EMISSOR <chr>, CATEG_REG <chr>, DT_INI_CATEG <chr>,
## #   AUDITOR <chr>, CNPJ_AUDITOR <dbl>, TP_ENDER <chr>, LOGRADOURO <chr>,
## #   COMPL <chr>, BAIRRO <chr>, CIDADE <chr>, UF <chr>, PAIS <chr>,
## #   CD_POSTAL <lgl>, TEL <chr>, FAX <chr>, EMAIL <chr>, TP_RESP <chr>,
## #   RESP <chr>, DT_INI_RESP <chr>, LOGRADOURO_RESP <chr>, COMPL_RESP <chr>,
## #   BAIRRO_RESP <chr>, CIDADE_RESP <chr>, UF_RESP <chr>, PAIS_RESP <chr>,
## #   CEP_RESP <dbl>, TEL_RESP <chr>, FAX_RESP <chr>, EMAIL_RESP <chr>,
…
